{
  "$schema": "https://raw.githubusercontent.com/JanDeDobbeleer/oh-my-posh/main/themes/schema.json",
  "version": 2,
  "final_space": true,
  "blocks": [
    {
      "type": "prompt",
      "alignment": "left",
      "segments": [
        {
          "type": "root",
          "style": "plain",
          "foreground": "#dd1e1e",
          "background": "#000000"
        },
        {
          "type": "time",
          "style": "diamond",
          "foreground": "#43CCEA",
          "background": "#272727",
          "properties": {
            "time_format": "15:04:05"
          }
        },
        {
          "type": "path",
          "style": "plain",
          "foreground": "#43CCEA",
          "background": "#272727",
          "properties": {
            "folder_icon": "\ue5fe",
            "folder_separator_icon": "<transparent> \ue0bd </>",
            "home_icon": "\uf7db",
            "style": "agnoster_short"
          }
        },
        {
          "type": "git",
          "style": "plain",
          "foreground": "#00ff0d",
          "background": "#272727",
          "properties": {
            "fetch_stash_count": true,
            "fetch_status": true
          }
        }
      ]
    },
    {
      "type": "prompt",
      "alignment": "left",
      "segments": [
        {
          "type": "kubectl",
          "style": "powerline",
          "foreground": "#eb780c",
          "background": "#272727"
        },
        {
          "type": "executiontime",
          "style": "diamond",
          "foreground": "#ffffff",
          "background": "#272727",
          "properties": {
            "style": "dallas",
            "threshold": 0
          }
        }
      ]
    },
    {
      "type": "prompt",
      "alignment": "left",
      "segments": [
        {
          "type": "exit",
          "style": "plain",
          "foreground": "#00ff0d",
          "foreground_templates": [
            "{{ if gt .Code 0 }}#ff0000{{ end }}"
          ],
          "properties": {
            "always_enabled": true
          }
        }
      ],
      "newline": true
    }
  ],
  "osc99": true
}
